<!--Pololu Maestro servo controller settings file, http://www.pololu.com/catalog/product/1350-->
<UscSettings version="1">
  <NeverSuspend>false</NeverSuspend>
  <SerialMode>UART_FIXED_BAUD_RATE</SerialMode>
  <FixedBaudRate>57600</FixedBaudRate>
  <SerialTimeout>0</SerialTimeout>
  <EnableCrc>false</EnableCrc>
  <SerialDeviceNumber>12</SerialDeviceNumber>
  <SerialMiniSscOffset>0</SerialMiniSscOffset>
  <Channels ServosAvailable="6" ServoPeriod="156">
    <!--Period = 19.968 ms-->
    <!--Channel 0-->
    <Channel name="" mode="Servo" min="3968" max="8960" homemode="Goto" home="3968" speed="0" acceleration="0" neutral="3968" range="1905" />
    <!--Channel 1-->
    <Channel name="" mode="Servo" min="3968" max="8960" homemode="Goto" home="3968" speed="0" acceleration="0" neutral="3968" range="1905" />
    <!--Channel 2-->
    <Channel name="" mode="Servo" min="3968" max="8960" homemode="Goto" home="3968" speed="0" acceleration="0" neutral="3968" range="1905" />
    <!--Channel 3-->
    <Channel name="" mode="Servo" min="3968" max="8960" homemode="Goto" home="3968" speed="0" acceleration="0" neutral="3968" range="1905" />
    <!--Channel 4-->
    <Channel name="" mode="Output" min="3968" max="8000" homemode="Off" home="3968" speed="0" acceleration="0" neutral="6000" range="1905" />
    <!--Channel 5-->
    <Channel name="" mode="Output" min="3968" max="8000" homemode="Goto" home="8000" speed="0" acceleration="0" neutral="6000" range="1905" />
  </Channels>
  <Sequences />
  <Script ScriptDone="true" />
</UscSettings>